{
  "pipelineConfig" : {
    "schemaVersion" : 5,
    "version" : 8,
    "pipelineId" : "cochraneworking061afcadfd0-a839-417f-a3f7-2965bfe0bdb4",
    "title" : "cochrane_working_06_1",
    "description" : "",
    "uuid" : "cb73fb98-8d4c-4f82-93e4-14be6dcddf8e",
    "configuration" : [ {
      "name" : "executionMode",
      "value" : "STANDALONE"
    }, {
      "name" : "deliveryGuarantee",
      "value" : "AT_LEAST_ONCE"
    }, {
      "name" : "startEventStage",
      "value" : "streamsets-datacollector-basic-lib::com_streamsets_pipeline_stage_destination_devnull_ToErrorNullDTarget::1"
    }, {
      "name" : "stopEventStage",
      "value" : "streamsets-datacollector-basic-lib::com_streamsets_pipeline_stage_destination_devnull_ToErrorNullDTarget::1"
    }, {
      "name" : "shouldRetry",
      "value" : true
    }, {
      "name" : "retryAttempts",
      "value" : -1
    }, {
      "name" : "memoryLimit",
      "value" : "${jvm:maxMemoryMB() * 0.85}"
    }, {
      "name" : "memoryLimitExceeded",
      "value" : "LOG"
    }, {
      "name" : "notifyOnStates",
      "value" : [ "RUN_ERROR", "STOPPED", "FINISHED" ]
    }, {
      "name" : "emailIDs",
      "value" : [ ]
    }, {
      "name" : "constants",
      "value" : [ ]
    }, {
      "name" : "badRecordsHandling",
      "value" : "streamsets-datacollector-basic-lib::com_streamsets_pipeline_stage_destination_devnull_ToErrorNullDTarget::1"
    }, {
      "name" : "errorRecordPolicy",
      "value" : "ORIGINAL_RECORD"
    }, {
      "name" : "workerCount",
      "value" : 0
    }, {
      "name" : "clusterSlaveMemory",
      "value" : 2048
    }, {
      "name" : "clusterSlaveJavaOpts",
      "value" : "-XX:+UseConcMarkSweepGC -XX:+UseParNewGC -Dlog4j.debug"
    }, {
      "name" : "clusterLauncherEnv",
      "value" : [ ]
    }, {
      "name" : "mesosDispatcherURL",
      "value" : null
    }, {
      "name" : "hdfsS3ConfDir",
      "value" : null
    }, {
      "name" : "rateLimit",
      "value" : 0
    }, {
      "name" : "maxRunners",
      "value" : 0
    }, {
      "name" : "shouldCreateFailureSnapshot",
      "value" : true
    }, {
      "name" : "webhookConfigs",
      "value" : [ ]
    }, {
      "name" : "sparkConfigs",
      "value" : [ ]
    }, {
      "name" : "statsAggregatorStage",
      "value" : ""
    } ],
    "uiInfo" : {
      "previewConfig" : {
        "previewSource" : "CONFIGURED_SOURCE",
        "batchSize" : 10,
        "timeout" : 10000,
        "writeToDestinations" : false,
        "executeLifecycleEvents" : true,
        "showHeader" : true,
        "showFieldType" : true,
        "rememberMe" : false
      }
    },
    "stages" : [ {
      "instanceName" : "AmazonS3_01",
      "library" : "streamsets-datacollector-aws-lib",
      "stageName" : "com_streamsets_pipeline_stage_origin_s3_AmazonS3DSource",
      "stageVersion" : "9",
      "configuration" : [ {
        "name" : "s3ConfigBean.basicConfig.maxBatchSize",
        "value" : 1000
      }, {
        "name" : "s3ConfigBean.basicConfig.maxWaitTime",
        "value" : 2000
      }, {
        "name" : "s3ConfigBean.sseConfig.useCustomerSSEKey",
        "value" : false
      }, {
        "name" : "s3ConfigBean.sseConfig.customerKey",
        "value" : null
      }, {
        "name" : "s3ConfigBean.sseConfig.customerKeyMd5",
        "value" : null
      }, {
        "name" : "s3ConfigBean.proxyConfig.connectionTimeout",
        "value" : 10
      }, {
        "name" : "s3ConfigBean.proxyConfig.socketTimeout",
        "value" : 50
      }, {
        "name" : "s3ConfigBean.proxyConfig.retryCount",
        "value" : 3
      }, {
        "name" : "s3ConfigBean.proxyConfig.useProxy",
        "value" : false
      }, {
        "name" : "s3ConfigBean.proxyConfig.proxyHost",
        "value" : null
      }, {
        "name" : "s3ConfigBean.proxyConfig.proxyPort",
        "value" : null
      }, {
        "name" : "s3ConfigBean.proxyConfig.proxyUser",
        "value" : null
      }, {
        "name" : "s3ConfigBean.proxyConfig.proxyPassword",
        "value" : null
      }, {
        "name" : "s3ConfigBean.dataFormat",
        "value" : "JSON"
      }, {
        "name" : "s3ConfigBean.dataFormatConfig.compression",
        "value" : "NONE"
      }, {
        "name" : "s3ConfigBean.dataFormatConfig.filePatternInArchive",
        "value" : "*"
      }, {
        "name" : "s3ConfigBean.dataFormatConfig.charset",
        "value" : "UTF-8"
      }, {
        "name" : "s3ConfigBean.dataFormatConfig.removeCtrlChars",
        "value" : false
      }, {
        "name" : "s3ConfigBean.dataFormatConfig.textMaxLineLen",
        "value" : 1024
      }, {
        "name" : "s3ConfigBean.dataFormatConfig.useCustomDelimiter",
        "value" : false
      }, {
        "name" : "s3ConfigBean.dataFormatConfig.customDelimiter",
        "value" : "\\r\\n"
      }, {
        "name" : "s3ConfigBean.dataFormatConfig.includeCustomDelimiterInTheText",
        "value" : false
      }, {
        "name" : "s3ConfigBean.dataFormatConfig.jsonContent",
        "value" : "MULTIPLE_OBJECTS"
      }, {
        "name" : "s3ConfigBean.dataFormatConfig.jsonMaxObjectLen",
        "value" : 40960000
      }, {
        "name" : "s3ConfigBean.dataFormatConfig.csvFileFormat",
        "value" : "CSV"
      }, {
        "name" : "s3ConfigBean.dataFormatConfig.csvHeader",
        "value" : "NO_HEADER"
      }, {
        "name" : "s3ConfigBean.dataFormatConfig.csvAllowExtraColumns",
        "value" : false
      }, {
        "name" : "s3ConfigBean.dataFormatConfig.csvExtraColumnPrefix",
        "value" : "_extra_"
      }, {
        "name" : "s3ConfigBean.dataFormatConfig.csvMaxObjectLen",
        "value" : 1024
      }, {
        "name" : "s3ConfigBean.dataFormatConfig.csvCustomDelimiter",
        "value" : "|"
      }, {
        "name" : "s3ConfigBean.dataFormatConfig.csvCustomEscape",
        "value" : "\\"
      }, {
        "name" : "s3ConfigBean.dataFormatConfig.csvCustomQuote",
        "value" : "\""
      }, {
        "name" : "s3ConfigBean.dataFormatConfig.csvEnableComments",
        "value" : false
      }, {
        "name" : "s3ConfigBean.dataFormatConfig.csvCommentMarker",
        "value" : "#"
      }, {
        "name" : "s3ConfigBean.dataFormatConfig.csvIgnoreEmptyLines",
        "value" : true
      }, {
        "name" : "s3ConfigBean.dataFormatConfig.csvRecordType",
        "value" : "LIST_MAP"
      }, {
        "name" : "s3ConfigBean.dataFormatConfig.csvSkipStartLines",
        "value" : 0
      }, {
        "name" : "s3ConfigBean.dataFormatConfig.parseNull",
        "value" : false
      }, {
        "name" : "s3ConfigBean.dataFormatConfig.nullConstant",
        "value" : "\\\\N"
      }, {
        "name" : "s3ConfigBean.dataFormatConfig.xmlRecordElement",
        "value" : null
      }, {
        "name" : "s3ConfigBean.dataFormatConfig.includeFieldXpathAttributes",
        "value" : false
      }, {
        "name" : "s3ConfigBean.dataFormatConfig.xPathNamespaceContext",
        "value" : [ ]
      }, {
        "name" : "s3ConfigBean.dataFormatConfig.outputFieldAttributes",
        "value" : false
      }, {
        "name" : "s3ConfigBean.dataFormatConfig.xmlMaxObjectLen",
        "value" : 4096
      }, {
        "name" : "s3ConfigBean.dataFormatConfig.logMode",
        "value" : "COMMON_LOG_FORMAT"
      }, {
        "name" : "s3ConfigBean.dataFormatConfig.logMaxObjectLen",
        "value" : 1024
      }, {
        "name" : "s3ConfigBean.dataFormatConfig.retainOriginalLine",
        "value" : false
      }, {
        "name" : "s3ConfigBean.dataFormatConfig.customLogFormat",
        "value" : "%h %l %u %t \"%r\" %>s %b"
      }, {
        "name" : "s3ConfigBean.dataFormatConfig.regex",
        "value" : "^(\\S+) (\\S+) (\\S+) \\[([\\w:/]+\\s[+\\-]\\d{4})\\] \"(\\S+) (\\S+) (\\S+)\" (\\d{3}) (\\d+)"
      }, {
        "name" : "s3ConfigBean.dataFormatConfig.fieldPathsToGroupName",
        "value" : [ {
          "fieldPath" : "/",
          "group" : 1
        } ]
      }, {
        "name" : "s3ConfigBean.dataFormatConfig.grokPatternDefinition",
        "value" : null
      }, {
        "name" : "s3ConfigBean.dataFormatConfig.grokPattern",
        "value" : "%{COMMONAPACHELOG}"
      }, {
        "name" : "s3ConfigBean.dataFormatConfig.onParseError",
        "value" : "ERROR"
      }, {
        "name" : "s3ConfigBean.dataFormatConfig.maxStackTraceLines",
        "value" : 50
      }, {
        "name" : "s3ConfigBean.dataFormatConfig.enableLog4jCustomLogFormat",
        "value" : false
      }, {
        "name" : "s3ConfigBean.dataFormatConfig.log4jCustomLogFormat",
        "value" : "%r [%t] %-5p %c %x - %m%n"
      }, {
        "name" : "s3ConfigBean.dataFormatConfig.avroSchemaSource",
        "value" : null
      }, {
        "name" : "s3ConfigBean.dataFormatConfig.avroSchema",
        "value" : null
      }, {
        "name" : "s3ConfigBean.dataFormatConfig.schemaRegistryUrls",
        "value" : [ ]
      }, {
        "name" : "s3ConfigBean.dataFormatConfig.schemaLookupMode",
        "value" : "SUBJECT"
      }, {
        "name" : "s3ConfigBean.dataFormatConfig.subject",
        "value" : null
      }, {
        "name" : "s3ConfigBean.dataFormatConfig.schemaId",
        "value" : null
      }, {
        "name" : "s3ConfigBean.dataFormatConfig.protoDescriptorFile",
        "value" : null
      }, {
        "name" : "s3ConfigBean.dataFormatConfig.messageType",
        "value" : null
      }, {
        "name" : "s3ConfigBean.dataFormatConfig.isDelimited",
        "value" : true
      }, {
        "name" : "s3ConfigBean.dataFormatConfig.binaryMaxObjectLen",
        "value" : 1024
      }, {
        "name" : "s3ConfigBean.dataFormatConfig.datagramMode",
        "value" : "SYSLOG"
      }, {
        "name" : "s3ConfigBean.dataFormatConfig.typesDbPath",
        "value" : null
      }, {
        "name" : "s3ConfigBean.dataFormatConfig.convertTime",
        "value" : false
      }, {
        "name" : "s3ConfigBean.dataFormatConfig.excludeInterval",
        "value" : true
      }, {
        "name" : "s3ConfigBean.dataFormatConfig.authFilePath",
        "value" : null
      }, {
        "name" : "s3ConfigBean.dataFormatConfig.netflowOutputValuesMode",
        "value" : "RAW_AND_INTERPRETED"
      }, {
        "name" : "s3ConfigBean.dataFormatConfig.maxTemplateCacheSize",
        "value" : -1
      }, {
        "name" : "s3ConfigBean.dataFormatConfig.templateCacheTimeoutMs",
        "value" : -1
      }, {
        "name" : "s3ConfigBean.dataFormatConfig.netflowOutputValuesModeDatagram",
        "value" : "RAW_AND_INTERPRETED"
      }, {
        "name" : "s3ConfigBean.dataFormatConfig.maxTemplateCacheSizeDatagram",
        "value" : -1
      }, {
        "name" : "s3ConfigBean.dataFormatConfig.templateCacheTimeoutMsDatagram",
        "value" : -1
      }, {
        "name" : "s3ConfigBean.dataFormatConfig.wholeFileMaxObjectLen",
        "value" : 8192
      }, {
        "name" : "s3ConfigBean.dataFormatConfig.rateLimit",
        "value" : "-1"
      }, {
        "name" : "s3ConfigBean.dataFormatConfig.verifyChecksum",
        "value" : false
      }, {
        "name" : "s3ConfigBean.errorConfig.errorHandlingOption",
        "value" : "ARCHIVE"
      }, {
        "name" : "s3ConfigBean.errorConfig.archivingOption",
        "value" : "MOVE_TO_BUCKET"
      }, {
        "name" : "s3ConfigBean.errorConfig.errorPrefix",
        "value" : "/who"
      }, {
        "name" : "s3ConfigBean.errorConfig.errorBucket",
        "value" : "nexscope-error"
      }, {
        "name" : "s3ConfigBean.postProcessingConfig.postProcessing",
        "value" : "NONE"
      }, {
        "name" : "s3ConfigBean.postProcessingConfig.archivingOption",
        "value" : "MOVE_TO_PREFIX"
      }, {
        "name" : "s3ConfigBean.postProcessingConfig.postProcessPrefix",
        "value" : null
      }, {
        "name" : "s3ConfigBean.postProcessingConfig.postProcessBucket",
        "value" : null
      }, {
        "name" : "s3ConfigBean.s3FileConfig.prefixPattern",
        "value" : "*.json"
      }, {
        "name" : "s3ConfigBean.s3FileConfig.objectOrdering",
        "value" : "LEXICOGRAPHICAL"
      }, {
        "name" : "s3ConfigBean.s3FileConfig.poolSize",
        "value" : 100
      }, {
        "name" : "s3ConfigBean.s3FileConfig.overrunLimit",
        "value" : 128
      }, {
        "name" : "s3ConfigBean.s3Config.bucket",
        "value" : "nexscope-safety"
      }, {
        "name" : "s3ConfigBean.s3Config.awsConfig.awsAccessKeyId",
        "value" : "AKIAJLRXYJPUIWI6P3LA"
      }, {
        "name" : "s3ConfigBean.s3Config.awsConfig.awsSecretAccessKey",
        "value" : "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"
      }, {
        "name" : "s3ConfigBean.s3Config.region",
        "value" : "US_EAST_2"
      }, {
        "name" : "s3ConfigBean.s3Config.endpoint",
        "value" : null
      }, {
        "name" : "s3ConfigBean.s3Config.commonPrefix",
        "value" : "cochrane_test1"
      }, {
        "name" : "s3ConfigBean.s3Config.delimiter",
        "value" : "/"
      }, {
        "name" : "s3ConfigBean.enableMetaData",
        "value" : false
      }, {
        "name" : "stageOnRecordError",
        "value" : "TO_ERROR"
      } ],
      "uiInfo" : {
        "description" : "",
        "label" : "WHO_s3_who3",
        "xPos" : 60,
        "yPos" : 50,
        "stageType" : "SOURCE"
      },
      "inputLanes" : [ ],
      "outputLanes" : [ "AmazonS3_01OutputLane15271783351480" ],
      "eventLanes" : [ ],
      "services" : [ ]
    }, {
      "instanceName" : "MapRDBJSON_01",
      "library" : "streamsets-datacollector-mapr_6_0-lib",
      "stageName" : "com_streamsets_pipeline_stage_destination_mapr_MapRJsonDTarget",
      "stageVersion" : "1",
      "configuration" : [ {
        "name" : "mapRJsonConfigBean.tableName",
        "value" : "tables/cochrane_x_06_1"
      }, {
        "name" : "mapRJsonConfigBean.createTable",
        "value" : true
      }, {
        "name" : "mapRJsonConfigBean.keyField",
        "value" : "/ID"
      }, {
        "name" : "mapRJsonConfigBean.isBinaryRowKey",
        "value" : false
      }, {
        "name" : "mapRJsonConfigBean.insertOrReplace",
        "value" : "REPLACE"
      }, {
        "name" : "mapRJsonConfigBean.setOrReplace",
        "value" : "REPLACE"
      }, {
        "name" : "stageOnRecordError",
        "value" : "TO_ERROR"
      }, {
        "name" : "stageRequiredFields",
        "value" : [ ]
      }, {
        "name" : "stageRecordPreconditions",
        "value" : [ ]
      } ],
      "uiInfo" : {
        "description" : "",
        "label" : "MapR DB JSON 1",
        "xPos" : 694,
        "yPos" : 52,
        "stageType" : "TARGET"
      },
      "inputLanes" : [ "AmazonS3_01OutputLane15271783351480" ],
      "outputLanes" : [ ],
      "eventLanes" : [ ],
      "services" : [ ]
    } ],
    "errorStage" : {
      "instanceName" : "Discard_ErrorStage",
      "library" : "streamsets-datacollector-basic-lib",
      "stageName" : "com_streamsets_pipeline_stage_destination_devnull_ToErrorNullDTarget",
      "stageVersion" : "1",
      "configuration" : [ ],
      "uiInfo" : {
        "description" : "",
        "label" : "Error Records - Discard",
        "xPos" : 742,
        "yPos" : 50,
        "stageType" : "TARGET"
      },
      "inputLanes" : [ ],
      "outputLanes" : [ ],
      "eventLanes" : [ ],
      "services" : [ ]
    },
    "info" : {
      "pipelineId" : "cochraneworking061afcadfd0-a839-417f-a3f7-2965bfe0bdb4",
      "title" : "cochrane_working_06_1",
      "description" : "",
      "created" : 1527957575658,
      "lastModified" : 1528343440585,
      "creator" : "admin",
      "lastModifier" : "admin",
      "lastRev" : "0",
      "uuid" : "cb73fb98-8d4c-4f82-93e4-14be6dcddf8e",
      "valid" : true,
      "metadata" : {
        "labels" : [ ]
      },
      "name" : "cochraneworking061afcadfd0-a839-417f-a3f7-2965bfe0bdb4",
      "sdcVersion" : "3.1.1.0",
      "sdcId" : "a00f405b-27c3-11e8-a428-35c7ce8e98ee"
    },
    "metadata" : {
      "labels" : [ ]
    },
    "statsAggregatorStage" : null,
    "startEventStages" : [ {
      "instanceName" : "Discard_StartEventStage",
      "library" : "streamsets-datacollector-basic-lib",
      "stageName" : "com_streamsets_pipeline_stage_destination_devnull_ToErrorNullDTarget",
      "stageVersion" : "1",
      "configuration" : [ ],
      "uiInfo" : {
        "description" : "",
        "label" : "Start Event - Discard",
        "xPos" : 280,
        "yPos" : 50,
        "stageType" : "TARGET"
      },
      "inputLanes" : [ ],
      "outputLanes" : [ ],
      "eventLanes" : [ ],
      "services" : [ ]
    } ],
    "stopEventStages" : [ {
      "instanceName" : "Discard_StopEventStage",
      "library" : "streamsets-datacollector-basic-lib",
      "stageName" : "com_streamsets_pipeline_stage_destination_devnull_ToErrorNullDTarget",
      "stageVersion" : "1",
      "configuration" : [ ],
      "uiInfo" : {
        "description" : "",
        "label" : "Stop Event - Discard",
        "xPos" : 280,
        "yPos" : 50,
        "stageType" : "TARGET"
      },
      "inputLanes" : [ ],
      "outputLanes" : [ ],
      "eventLanes" : [ ],
      "services" : [ ]
    } ],
    "valid" : true,
    "issues" : {
      "pipelineIssues" : [ ],
      "stageIssues" : { },
      "issueCount" : 0
    },
    "previewable" : true
  },
  "pipelineRules" : {
    "schemaVersion" : 3,
    "version" : 2,
    "metricsRuleDefinitions" : [ {
      "id" : "badRecordsAlertID",
      "alertText" : "High incidence of Error Records",
      "metricId" : "pipeline.batchErrorRecords.counter",
      "metricType" : "COUNTER",
      "metricElement" : "COUNTER_COUNT",
      "condition" : "${value() > 100}",
      "sendEmail" : false,
      "enabled" : false,
      "timestamp" : 1527124744340,
      "valid" : true
    }, {
      "id" : "stageErrorAlertID",
      "alertText" : "High incidence of Stage Errors",
      "metricId" : "pipeline.batchErrorMessages.counter",
      "metricType" : "COUNTER",
      "metricElement" : "COUNTER_COUNT",
      "condition" : "${value() > 100}",
      "sendEmail" : false,
      "enabled" : false,
      "timestamp" : 1527124744340,
      "valid" : true
    }, {
      "id" : "idleGaugeID",
      "alertText" : "Pipeline is Idle",
      "metricId" : "RuntimeStatsGauge.gauge",
      "metricType" : "GAUGE",
      "metricElement" : "TIME_OF_LAST_RECEIVED_RECORD",
      "condition" : "${time:now() - value() > 120000}",
      "sendEmail" : false,
      "enabled" : false,
      "timestamp" : 1527124744340,
      "valid" : true
    }, {
      "id" : "batchTimeAlertID",
      "alertText" : "Batch taking more time to process",
      "metricId" : "RuntimeStatsGauge.gauge",
      "metricType" : "GAUGE",
      "metricElement" : "CURRENT_BATCH_AGE",
      "condition" : "${value() > 200}",
      "sendEmail" : false,
      "enabled" : false,
      "timestamp" : 1527124744340,
      "valid" : true
    }, {
      "id" : "memoryLimitAlertID",
      "alertText" : "Memory limit for pipeline exceeded",
      "metricId" : "pipeline.memoryConsumed.counter",
      "metricType" : "COUNTER",
      "metricElement" : "COUNTER_COUNT",
      "condition" : "${value() > (jvm:maxMemoryMB() * 0.65)}",
      "sendEmail" : false,
      "enabled" : false,
      "timestamp" : 1527124744340,
      "valid" : true
    } ],
    "dataRuleDefinitions" : [ ],
    "driftRuleDefinitions" : [ ],
    "uuid" : "f16fcc06-dad0-4463-a51a-3dd11b8f915f",
    "configuration" : [ {
      "name" : "emailIDs",
      "value" : [ ]
    }, {
      "name" : "webhookConfigs",
      "value" : [ ]
    } ],
    "ruleIssues" : [ ],
    "configIssues" : [ ]
  },
  "libraryDefinitions" : null
}